<svg width="3200" height="1708" viewBox="0 0 3200 1708" fill="none" xmlns="http://www.w3.org/2000/svg">
<path d="M1135 1329L1132 1315.5L1131.32 1313.56C1129.66 1308.82 1131.42 1303.55 1135.61 1300.76V1300.76C1137.8 1299.3 1139.39 1297.11 1140.1 1294.57L1141.09 1291.05C1141.98 1287.87 1144.31 1285.3 1147.39 1284.12V1284.12C1148.46 1283.71 1149.45 1283.13 1150.32 1282.4L1154.15 1279.21C1156.64 1277.13 1158.33 1274.26 1158.94 1271.08L1159.33 1269.01C1159.76 1266.76 1161.05 1264.77 1162.92 1263.45V1263.45C1164.28 1262.5 1165.34 1261.19 1165.98 1259.66L1166.32 1258.87C1167.97 1254.94 1167.37 1250.42 1164.74 1247.05L1162.15 1243.75C1160.79 1242 1160.25 1239.75 1160.68 1237.58L1161.36 1234.21C1161.95 1231.25 1159.69 1228.5 1156.68 1228.5H1156.45C1154.66 1228.5 1153.05 1229.57 1152.36 1231.23V1231.23C1151.57 1233.14 1149.55 1234.24 1147.51 1233.88L1145.2 1233.48C1143.46 1233.17 1141.66 1233.5 1140.15 1234.41L1137.18 1236.19C1135.81 1237.02 1134.13 1237.15 1132.64 1236.56V1236.56C1131 1235.9 1129.13 1236.14 1127.71 1237.18L1124.02 1239.88C1123.06 1240.59 1121.83 1240.82 1120.68 1240.5L1119.08 1240.07C1117.92 1239.75 1116.72 1240.42 1116.38 1241.57V1241.57C1115.95 1243.01 1114.23 1243.61 1112.99 1242.74L1111.76 1241.88C1110.96 1241.32 1109.96 1241.14 1109.02 1241.4L1107.22 1241.87C1104.62 1242.57 1101.85 1241.77 1100.02 1239.81L1098.17 1237.83C1096.85 1236.42 1094.82 1235.93 1093.01 1236.59V1236.59C1091.45 1237.16 1089.71 1236.88 1088.4 1235.85L1079 1228.5L1071.95 1222.19C1070.42 1220.82 1068.31 1220.3 1066.31 1220.8V1220.8C1064.53 1221.24 1062.64 1220.88 1061.16 1219.8L1055.37 1215.59C1053.51 1214.23 1051.26 1213.5 1048.95 1213.5H1048.08C1043.38 1213.5 1039.34 1210.18 1038.41 1205.57L1038.23 1204.67C1037.77 1202.35 1036.29 1200.35 1034.19 1199.24L1032.17 1198.16C1030.84 1197.45 1030 1196.05 1030 1194.54V1194.54C1030 1193.55 1029.64 1192.59 1028.99 1191.84L1023.5 1185.52C1021.24 1182.93 1020 1179.61 1020 1176.17V1168.32C1020 1166.65 1021.1 1165.18 1022.71 1164.7V1164.7C1025.38 1163.92 1026.31 1160.6 1024.43 1158.54L1019.05 1152.65C1018.36 1151.89 1017.8 1151.01 1017.41 1150.05L1014.28 1142.36C1013.15 1139.59 1013.27 1136.46 1014.61 1133.79V1133.79C1015.52 1131.97 1016.94 1130.46 1018.7 1129.44L1022.05 1127.5C1024.26 1126.22 1025.88 1124.12 1026.55 1121.65L1028.01 1116.28C1028.3 1115.23 1029.26 1114.5 1030.35 1114.5V1114.5C1031.94 1114.5 1033.09 1112.99 1032.68 1111.45L1031.31 1106.38C1030.54 1103.52 1031.83 1100.49 1034.43 1099.06L1038.29 1096.94C1039.39 1096.33 1040.68 1096.14 1041.92 1096.38V1096.38C1046.26 1097.25 1049.72 1092.78 1047.79 1088.79L1045.05 1083.13C1044.69 1082.38 1044.43 1081.58 1044.3 1080.76L1042.4 1068.67C1041.82 1065.02 1039.91 1061.71 1037.03 1059.39L1032.13 1055.44C1029.97 1053.69 1026.93 1053.55 1024.61 1055.09V1055.09C1023.26 1056 1021.6 1056.34 1020 1056.06L1015.37 1055.26C1012.5 1054.76 1009.79 1053.58 1007.48 1051.81L998.515 1044.97C994.555 1041.95 992.754 1036.88 993.923 1032.03L994.574 1029.34C995.153 1026.94 994.495 1024.41 992.823 1022.6L990.861 1020.47C990.036 1019.58 989.827 1018.28 990.33 1017.17V1017.17C991.165 1015.34 990.002 1013.21 988.006 1012.93L982.959 1012.21C980.006 1011.79 977.667 1009.5 977.177 1006.56L976.263 1001.08C976.089 1000.03 975.768 999.013 975.312 998.055L973.965 995.226C972.27 991.667 973.485 987.403 976.8 985.271V985.271C977.594 984.761 978.472 984.399 979.394 984.201L989.876 981.955C991.235 981.664 992.42 980.84 993.166 979.667V979.667C994.516 977.545 997.194 976.697 999.519 977.655L1005.7 980.201C1009.77 981.876 1014.45 980.786 1017.36 977.487L1017.61 977.206C1019.15 975.465 1021.28 974.358 1023.59 974.101V974.101C1026.93 973.73 1029.82 971.588 1031.15 968.494L1031.48 967.718C1032.76 964.733 1035.31 962.482 1038.44 961.59L1045.35 959.614C1046.7 959.229 1048.15 959.52 1049.24 960.396V960.396C1051.06 961.85 1053.7 961.606 1055.22 959.845L1058.88 955.618C1060.85 953.327 1061.7 950.271 1061.19 947.288L1060.48 943.126C1059.55 937.716 1061.31 932.193 1065.19 928.312L1066.01 927.485C1067.64 925.859 1068.79 923.821 1069.35 921.59V921.59C1070.64 916.43 1068.58 911.012 1064.18 908.021L1061.37 906.112C1059.84 905.07 1058.71 903.528 1058.19 901.749L1057.51 899.419C1056.91 897.392 1055.05 896 1052.94 896H1049.87C1048 896 1046.72 894.13 1047.39 892.391V892.391C1047.97 890.871 1047.06 889.188 1045.47 888.842L1041.39 887.955C1038.77 887.384 1036.8 885.201 1036.51 882.533L1034.73 866.133C1034.58 864.72 1034.65 863.292 1034.96 861.903V861.903C1036.17 856.3 1033.63 850.552 1028.67 847.679L1018 841.5L1013.06 838.268C1007.9 834.893 1004.28 829.617 1002.98 823.588L1002.51 821.362C1001.24 815.477 1002.86 809.343 1006.86 804.844L1007.71 803.887C1010.76 800.461 1015.12 798.5 1019.71 798.5V798.5C1026.48 798.5 1032.38 794.144 1035.77 788.279C1038.49 783.566 1042.13 779 1046 779C1049.16 779 1051.46 785.626 1053.09 793.645C1054.15 798.888 1062.7 799.636 1064.16 794.489L1064.36 793.783C1065.16 790.966 1068.51 789.792 1070.89 791.494V791.494C1072.19 792.418 1073.89 792.539 1075.3 791.807L1084.19 787.2C1085.7 786.415 1086.97 785.231 1087.86 783.775V783.775C1090.25 779.868 1095.11 778.265 1099.36 779.989L1101.64 780.916C1105.59 782.521 1110.09 781.955 1113.52 779.423L1126.87 769.576C1128.23 768.565 1129.94 768.126 1131.63 768.351L1132.85 768.514C1135.01 768.802 1137.11 767.631 1137.99 765.638V765.638C1139.28 762.752 1142.91 761.807 1145.44 763.702L1147.39 765.168C1148.12 765.717 1148.96 766.114 1149.84 766.336L1164.45 769.988C1165.75 770.312 1166.83 771.205 1167.39 772.418L1167.52 772.715C1168.57 774.982 1171.37 775.807 1173.48 774.466V774.466C1174.45 773.85 1175.63 773.665 1176.74 773.956L1183.8 775.806C1190.7 777.613 1197.84 773.845 1200.24 767.127L1200.94 765.174C1202.47 760.872 1206.55 758 1211.12 758V758C1215.06 758 1218.68 755.859 1220.58 752.412L1223.99 746.231C1224.98 744.44 1225.5 742.427 1225.5 740.381V739.917C1225.5 733.993 1229.97 729.021 1235.86 728.39V728.39C1238.23 728.136 1240.46 727.158 1242.26 725.588L1244.07 723.997C1246.31 722.039 1247.95 719.489 1248.81 716.64V716.64C1249.9 713.002 1249.65 709.093 1248.09 705.627L1244.83 698.362C1244.29 697.137 1243.46 696.056 1242.42 695.203V695.203C1238.63 692.081 1238.17 686.444 1241.41 682.749L1242.79 681.169C1244.83 678.837 1247.78 677.5 1250.88 677.5H1254.05C1257.01 677.5 1259.63 675.608 1260.57 672.803V672.803C1261.16 671.014 1262.47 669.548 1264.18 668.751L1266.4 667.714C1268.04 666.948 1269.24 665.468 1269.65 663.703L1269.74 663.283C1270.2 661.285 1271.79 659.741 1273.8 659.339V659.339C1276.24 658.851 1278 656.709 1278 654.221V652.784C1278 651.947 1277.75 651.128 1277.29 650.431V650.431C1276.01 648.521 1276.49 645.944 1278.37 644.616L1284.95 639.949C1286.3 638.992 1287.85 638.309 1289.46 637.944V637.944C1296.59 636.336 1303.74 640.841 1305.25 647.985L1305.51 649.195C1305.83 650.721 1305.91 652.291 1305.72 653.84L1304.42 664.954C1304.14 667.29 1303.36 669.539 1302.14 671.547V671.547C1299.81 675.349 1299.15 679.936 1300.3 684.241L1300.45 684.81C1301.75 689.7 1305.09 693.796 1309.62 696.059L1312.07 697.283C1316.24 699.369 1319.6 702.778 1321.63 706.978L1324.74 713.422C1325.23 714.431 1326.1 715.2 1327.16 715.554V715.554C1328.86 716.119 1330 717.705 1330 719.491V720.373C1330 723.032 1331.95 725.292 1334.58 725.686L1338.29 726.244C1339.42 726.413 1340.51 726.779 1341.51 727.326L1348.34 731.049C1349.9 731.899 1351.83 731.561 1353.01 730.236V730.236C1354.18 728.923 1356.09 728.578 1357.64 729.4L1363.5 732.5L1365.19 733.313C1371.07 736.136 1373.4 743.304 1370.29 749.04L1369.92 749.733C1369.64 750.242 1369.29 750.708 1368.88 751.117V751.117C1365.99 754.011 1366.78 758.89 1370.44 760.721L1374 762.5C1375.31 763.157 1376.44 764.128 1377.29 765.328L1381.95 771.958C1384.29 775.286 1385.95 779.045 1386.84 783.019L1388.42 790.136C1389.11 793.259 1390.98 795.999 1393.63 797.792L1397.58 800.465C1402.16 803.567 1408.44 801.641 1410.5 796.5V796.5L1412.3 793.166C1415.25 787.687 1413.54 780.862 1408.37 777.41V777.41C1406.49 776.162 1405.01 774.414 1404.07 772.365L1403.04 770.085C1401.5 766.7 1402.14 762.724 1404.66 759.992V759.992C1405.86 758.691 1406.66 757.073 1406.97 755.33L1408.86 744.624C1409.27 742.33 1410.68 740.338 1412.71 739.196V739.196C1415.58 737.58 1417.12 734.33 1416.56 731.083L1416.45 730.475C1415.87 727.139 1417.29 723.772 1420.08 721.857L1429.81 715.185C1431.93 713.736 1433.82 711.993 1435.45 710.01L1439.8 704.684C1444.24 699.268 1447.71 693.133 1450.07 686.546L1452.92 678.581C1454.93 672.973 1455.33 666.914 1454.06 661.092L1453.91 660.397C1453.64 659.135 1453.26 657.897 1452.78 656.698L1448.26 645.409C1447.21 642.78 1447.97 639.773 1450.15 637.96V637.96C1451.64 636.718 1452.5 634.878 1452.5 632.938V632.641C1452.5 629.331 1454.77 626.451 1457.98 625.671L1464.31 624.137C1467.09 623.462 1469.99 624.695 1471.43 627.168L1473.49 630.7C1474.72 632.807 1477.66 633.079 1479.25 631.233V631.233C1481.41 628.739 1485.5 630.262 1485.5 633.556V648.812C1485.5 650.567 1486 652.287 1486.94 653.768L1492.5 662.5L1500.79 673.659C1503.8 677.713 1508.32 680.377 1513.33 681.044L1517.5 681.599C1519.43 681.857 1521.39 681.385 1522.99 680.274L1525.5 678.541C1526.42 677.904 1527.62 677.844 1528.6 678.388V678.388C1530.14 679.245 1532.09 678.561 1532.75 676.927L1535.47 670.246C1536.33 668.154 1538.68 667.111 1540.8 667.882V667.882C1541.89 668.277 1543.08 668.207 1544.12 667.7C1548.43 665.593 1555.09 662.5 1556.5 662.5C1557.86 662.5 1563.14 659.623 1566.75 657.529C1567.72 656.971 1568.95 657.294 1569.51 658.261V658.261C1570.05 659.219 1571.28 659.547 1572.23 658.991L1573.59 658.2C1575.22 657.248 1577.31 657.745 1578.34 659.329L1581.59 664.334C1582.46 665.668 1582.52 667.371 1581.76 668.768L1581.29 669.631C1580.55 670.997 1580.9 672.701 1582.13 673.657V673.657C1583.46 674.691 1583.75 676.584 1582.79 677.969L1582.52 678.356C1581.21 680.248 1581.95 682.865 1584.05 683.8L1590.03 686.456C1592.09 687.375 1593.33 689.528 1593.08 691.778V691.778C1592.76 694.653 1594.85 697.235 1597.73 697.523L1602.71 698.021C1605.74 698.324 1608.76 697.244 1610.91 695.091V695.091C1614.19 691.805 1614.86 686.703 1612.51 682.695L1607.38 673.958C1604.8 669.566 1605.51 663.987 1609.11 660.385L1610.66 658.84C1612.98 656.523 1613.63 653.007 1612.33 650.002V650.002C1610.72 646.31 1606.59 644.385 1602.74 645.557V645.557C1599.84 646.44 1596.69 645.59 1594.63 643.368L1594.24 642.952C1592.5 641.077 1591.66 638.539 1591.93 635.994L1593.3 623.335C1593.43 622.117 1593.41 620.886 1593.24 619.672V619.672C1592.76 616.326 1593.45 612.918 1595.19 610.02L1597.02 606.964C1600.81 600.652 1607.21 596.352 1614.48 595.233L1621.37 594.174C1622.11 594.06 1622.82 593.764 1623.42 593.312V593.312C1625.92 591.437 1629.52 592.562 1630.51 595.527L1630.57 595.699C1630.85 596.549 1630.88 597.462 1630.67 598.33L1629.66 602.369C1629.07 604.721 1630.85 607 1633.27 607H1634.25C1635.77 607 1637 608.231 1637 609.75V609.75C1637 611.269 1638.23 612.5 1639.75 612.5H1658.59C1659.82 612.5 1661 612.965 1661.9 613.802V613.802C1664.61 616.34 1669.06 614.992 1669.91 611.371L1672.76 599.272C1673.52 596.031 1672.42 592.634 1669.91 590.453L1668.9 589.582C1667.39 588.272 1665.35 587.756 1663.4 588.19V588.19C1660.1 588.923 1656.81 586.929 1655.93 583.667L1655.12 580.656C1654.42 578.058 1655.06 575.281 1656.82 573.247L1658.77 570.996C1659.81 569.796 1660 568.075 1659.24 566.681V566.681C1658.26 564.899 1658.86 562.669 1660.59 561.611L1661.74 560.908C1664.32 559.334 1665.02 555.899 1663.28 553.433V553.433C1661.71 551.212 1662.09 548.153 1664.17 546.398L1665.1 545.604C1666.33 544.57 1667.13 543.13 1667.41 541.555C1667.79 539.445 1668.41 536.346 1669.19 533.811C1670.06 530.975 1672.78 531.312 1675.59 532.238C1678.11 533.067 1680.82 532.949 1682.46 532.752C1683.26 532.657 1684 533.263 1684 534.06V534.06C1684 534.964 1684.94 535.562 1685.76 535.18L1700.16 528.458C1704.05 526.644 1708.63 527.174 1711.99 529.829L1718.94 535.3C1721.22 537.101 1721.72 540.365 1720.08 542.767L1717.89 545.966C1717.16 547.042 1717.54 548.519 1718.7 549.102V549.102C1719.21 549.357 1719.8 549.399 1720.34 549.219L1724.76 547.748C1726.92 547.027 1729.28 547.972 1730.36 549.983L1730.61 550.45C1731.66 552.425 1734.1 553.202 1736.1 552.201V552.201C1737.56 551.471 1739.31 551.669 1740.57 552.707L1743.03 554.727C1745.28 556.584 1748.58 556.425 1750.64 554.36V554.36C1751.82 553.18 1753.46 552.58 1755.12 552.718L1763.41 553.409C1767.64 553.762 1771.63 551.365 1773.3 547.46L1774.07 545.67C1774.66 544.286 1775.81 543.212 1777.22 542.706V542.706C1779.91 541.746 1781.39 538.866 1780.61 536.123L1779.82 533.354C1779.29 531.506 1779.4 529.534 1780.14 527.76L1785.08 515.92C1785.99 513.735 1787.75 512.015 1789.95 511.157L1792.75 510.068C1794.41 509.424 1795.5 507.829 1795.5 506.052V506.052C1795.5 503.989 1796.96 502.216 1798.99 501.822L1827.47 496.283C1830.05 495.782 1832.71 496.349 1834.86 497.852V497.852C1838.7 500.54 1843.92 500.083 1847.23 496.768L1848.93 495.073C1852.09 491.909 1857.14 491.658 1860.6 494.491V494.491C1863.52 496.881 1867.65 497.118 1870.83 495.077L1873.78 493.176C1877.38 490.863 1881.86 490.385 1885.86 491.887L1893.95 494.918C1894.98 495.304 1895.94 495.845 1896.8 496.523V496.523C1900.24 499.227 1904.98 499.562 1908.77 497.369L1912 495.5L1940.5 482.5L1968.5 473L1985.64 468.325C1989.58 467.251 1992.9 471.39 1991 475V475L1987.67 481.96C1986.3 484.829 1983.7 486.917 1980.6 487.632V487.632C1975.86 488.725 1972.5 492.946 1972.5 497.81V499.824C1972.5 501.531 1973.21 503.16 1974.46 504.321L1976.96 506.641C1978.31 507.898 1978.27 510.054 1976.87 511.257V511.257C1975 512.861 1975.66 515.903 1978.03 516.58L1980.51 517.289C1982.05 517.729 1983.24 518.957 1983.63 520.511L1983.8 521.196C1984.67 524.662 1988.55 526.404 1991.71 524.746V524.746C1994.17 523.461 1997.19 524.193 1998.79 526.458L2002.59 531.863C2004.36 534.381 2004.49 537.703 2002.92 540.352V540.352C2000.23 544.89 2002.71 550.735 2007.85 551.951L2009.53 552.348C2013.61 553.316 2016.5 556.967 2016.5 561.167V561.167C2016.5 564.459 2018.28 567.491 2021.16 569.09L2038.37 578.65C2044.69 582.159 2051.79 584 2059.02 584H2066.49C2069.44 584 2072.33 584.814 2074.85 586.351L2075.66 586.847C2078.46 588.557 2081.78 589.19 2085.01 588.628V588.628C2089.11 587.916 2093.3 589.13 2096.38 591.918L2097.65 593.061C2100.47 595.613 2104.06 597.145 2107.86 597.411L2130.5 599L2149.63 600.391C2155.12 600.79 2160.41 602.603 2164.98 605.654L2166.32 606.548C2170.68 609.451 2175.79 611 2181.03 611H2183.8C2186.55 611 2189.26 610.289 2191.65 608.936L2193.15 608.088C2197.09 605.862 2201.91 605.862 2205.85 608.088V608.088C2209.12 609.937 2213.03 610.268 2216.57 608.996L2217.56 608.638C2221.36 607.269 2225.55 607.47 2229.21 609.195L2239.75 614.175C2240.91 614.724 2242.13 615.153 2243.38 615.458L2250.15 617.11C2256.68 618.703 2260.67 625.308 2259.04 631.832L2258.7 633.21C2257.44 638.258 2252.66 641.616 2247.48 641.098V641.098C2243.78 640.728 2240.15 642.351 2237.96 645.364L2235.68 648.505C2234.24 650.479 2232.4 652.126 2230.28 653.337L2216.79 661.048C2216.27 661.348 2215.71 661.588 2215.13 661.762V661.762C2212.55 662.534 2210.54 664.553 2209.78 667.131L2207.89 673.482C2207.34 675.345 2205.82 676.761 2203.93 677.183V677.183C2200.78 677.882 2198.97 681.182 2200.06 684.213L2202.5 691L2204.64 698.845C2205.15 700.708 2206.84 702 2208.77 702V702C2210.17 702 2211.48 701.318 2212.28 700.174L2212.45 699.932C2213.67 698.189 2215.88 697.446 2217.91 698.099L2227.9 701.323C2229.23 701.752 2230.3 702.751 2230.82 704.048V704.048C2231.53 705.831 2233.26 707 2235.18 707H2245.71C2246.86 707 2247.96 707.456 2248.77 708.267V708.267C2249.84 709.342 2250.27 710.902 2249.91 712.377L2248.53 717.871C2247.86 720.565 2246.42 723.006 2244.38 724.896L2235.09 733.528C2234.04 734.503 2232.84 735.306 2231.54 735.907L2225.52 738.685C2222.66 740.003 2221.25 743.257 2222.25 746.24L2222.46 746.891C2223.1 748.785 2222.56 750.874 2221.1 752.236V752.236C2218.58 754.593 2219.08 758.727 2222.09 760.418L2234.34 767.297C2240.03 770.49 2242.21 777.586 2239.29 783.42V783.42C2238.44 785.117 2238 786.988 2238 788.885V789.647C2238 790.547 2237.92 791.446 2237.76 792.332L2237.2 795.529C2236.74 798.112 2237.11 800.773 2238.23 803.14V803.14C2240.24 807.36 2244.42 810.122 2249.09 810.316L2249.67 810.34C2252.17 810.445 2254.6 811.242 2256.68 812.642L2270.56 821.989C2275.48 825.303 2279.77 829.465 2283.24 834.28L2294.35 849.715C2295.4 851.172 2295.8 853 2295.45 854.762V854.762C2295.16 856.21 2294.38 857.516 2293.25 858.461L2289.9 861.247C2285.54 864.885 2279.76 866.352 2274.19 865.238L2270.5 864.5L2261 863" stroke="white" stroke-width="3" stroke-linecap="round" stroke-linejoin="round"/>
<path d="M2231.5 891L2240.2 896.933C2241.7 897.954 2243.47 898.5 2245.28 898.5H2245.81C2247.55 898.5 2249.24 899.101 2250.58 900.202V900.202C2252.69 901.93 2255.57 902.381 2258.11 901.381L2268.26 897.382C2269.71 896.812 2271.31 896.769 2272.78 897.261L2273.99 897.663C2275.54 898.179 2276.68 899.498 2276.97 901.105V901.105C2277.29 902.862 2278.63 904.26 2280.37 904.662L2285.43 905.83C2288.58 906.558 2291.89 905.609 2294.18 903.32L2294.38 903.123C2296.34 901.157 2299.12 900.231 2301.87 900.625L2303.64 900.877C2306.26 901.251 2308.83 899.947 2310.07 897.615L2310.44 896.925C2311.39 895.147 2311.2 892.978 2309.95 891.393L2309.68 891.047C2307.97 888.877 2308.51 885.709 2310.83 884.217V884.217C2312.44 883.18 2314.52 883.231 2316.08 884.345L2323.61 889.725C2326.16 891.544 2329.13 892.682 2332.25 893.027L2346.55 894.616C2348.65 894.85 2350.68 893.821 2351.74 891.994L2352.02 891.517C2353.72 888.577 2357.81 888.2 2360.02 890.779V890.779C2360.96 891.871 2362.33 892.5 2363.77 892.5H2366.77C2367.86 892.5 2368.88 893.012 2369.54 893.883V893.883C2370.64 895.351 2372.69 895.704 2374.22 894.686L2377.5 892.5L2384.82 887.104C2386.24 886.062 2387.95 885.5 2389.7 885.5V885.5C2391.82 885.5 2393.85 884.685 2395.38 883.224L2399.89 878.926C2402.51 876.419 2404 872.945 2404 869.314V863.616C2404 861.169 2405.6 859.009 2407.93 858.29V858.29C2409.56 857.791 2410.86 856.58 2411.48 855.001L2415.04 845.952C2415.62 844.473 2417.05 843.5 2418.63 843.5V843.5C2420.77 843.5 2422.5 845.231 2422.5 847.365V851.992C2422.5 854.53 2423.63 856.935 2425.59 858.548L2429.97 862.154C2430.65 862.714 2431.42 863.161 2432.24 863.478V863.478C2435.41 864.696 2437.5 867.739 2437.5 871.133V876.293C2437.5 879.446 2440.46 881.759 2443.52 880.995V880.995C2444.79 880.678 2446.13 880.885 2447.24 881.569L2455.95 886.931C2457.58 887.932 2458.71 889.563 2459.09 891.435V891.435C2459.86 895.281 2463.68 897.704 2467.49 896.753L2470.79 895.928C2473.18 895.33 2475.27 893.879 2476.67 891.847L2479.44 887.82C2479.8 887.286 2480 886.653 2480 886.005V886.005C2480 883.548 2482.65 882.004 2484.79 883.217L2496.12 889.651C2497.68 890.535 2499.44 891 2501.23 891H2505.85C2508.24 891 2510.29 892.731 2510.68 895.094V895.094C2510.89 896.319 2511.55 897.42 2512.53 898.176L2523.91 906.9C2525.04 907.766 2526.67 907.496 2527.46 906.312L2527.53 906.212C2528.31 905.036 2529.95 904.81 2531.02 905.73V905.73C2531.88 906.467 2533.14 906.488 2534.02 905.781L2541.09 900.128C2543.49 898.208 2546.77 897.797 2549.57 899.058V899.058C2552.8 900.511 2556.61 899.72 2558.99 897.094V897.094C2562.03 893.735 2561.75 888.544 2558.37 885.527L2553.51 881.185C2551.54 879.428 2550.08 877.171 2549.29 874.654L2546.01 864.199C2545.36 862.141 2545.51 859.916 2546.42 857.962V857.962C2547.71 855.196 2550.36 853.324 2553.4 852.992C2560.33 852.233 2568.82 851.135 2568.5 850.5C2568.22 849.948 2565.55 844.285 2563.04 838.966C2561.42 835.513 2557.16 834.231 2553.89 836.216V836.216C2550.9 838.038 2547 837.123 2545.13 834.16L2545.02 833.991C2543.51 831.602 2543.68 828.52 2545.45 826.314L2548.78 822.156C2549.87 820.793 2551.52 820 2553.26 820V820C2554.39 820 2555.5 819.664 2556.45 819.035L2566.45 812.369C2567.79 811.476 2569.36 811 2570.97 811H2577.69C2579.83 811 2581.36 808.928 2580.73 806.882V806.882C2580.3 805.483 2580.88 803.971 2582.14 803.218L2583.53 802.382C2584.38 801.874 2585.47 802.059 2586.1 802.817V802.817C2586.85 803.721 2588.22 803.783 2589.05 802.951L2593.27 798.735C2595.96 796.042 2600.25 795.815 2603.21 798.207L2603.71 798.608C2607.56 801.721 2613.28 800.708 2615.82 796.46L2618.47 792.057C2619.44 790.441 2619.61 788.472 2618.95 786.708L2618.56 785.664C2617.67 783.297 2618.72 780.642 2620.98 779.511V779.511C2622.8 778.6 2623.88 776.664 2623.69 774.635L2622.28 759.53C2622.1 757.552 2622.49 755.563 2623.41 753.802V753.802C2625.97 748.887 2624.19 742.825 2619.38 740.074L2613.23 736.561C2609.26 734.292 2606.43 730.46 2605.42 725.999L2604.98 724.073C2604.06 719.966 2605.24 715.667 2608.14 712.614L2611.01 709.599C2612.24 708.295 2612.72 706.441 2612.25 704.702V704.702C2611.55 702.06 2613.02 699.326 2615.62 698.461L2617.38 697.872C2619.07 697.311 2620.9 697.396 2622.53 698.111L2632.5 702.5" stroke="white" stroke-width="3" stroke-linecap="round" stroke-linejoin="round"/>
<path d="M2254.5 619.5H2264.57C2266.49 619.5 2268.36 620.031 2269.99 621.033V621.033C2272.54 622.6 2275.64 622.988 2278.49 622.096L2282 621L2285.42 620.114C2291.81 618.457 2298.6 619.717 2303.97 623.553L2308.9 627.069C2311.48 628.915 2314.78 629.443 2317.81 628.496V628.496C2319.88 627.849 2322.11 627.883 2324.15 628.592L2330.24 630.698C2332.67 631.541 2334.75 633.184 2336.14 635.359L2337.83 638.014C2339.69 640.935 2343.31 642.191 2346.58 641.047L2348.62 640.333C2350.07 639.824 2351.69 640.193 2352.78 641.283V641.283C2353.84 642.339 2355.39 642.721 2356.82 642.276L2359.17 641.541C2361.29 640.877 2363.6 641.119 2365.54 642.211L2366.61 642.814C2369.11 644.215 2372.05 644.585 2374.81 643.845L2386.09 640.817C2389.11 640.006 2392.34 640.919 2394.49 643.196L2396.61 645.443C2398.27 647.203 2400.97 647.489 2402.96 646.118V646.118C2405.38 644.457 2408.71 645.271 2410.08 647.861L2414.61 656.382C2415.35 657.769 2417.13 658.189 2418.41 657.277V657.277C2419.09 656.789 2419.5 656.002 2419.5 655.163V648.5V648.5C2419.5 645.202 2421.57 642.259 2424.68 641.15L2425.51 640.855C2426.17 640.619 2426.85 640.461 2427.55 640.383L2428.21 640.31C2432.8 639.8 2436.89 637.162 2439.24 633.187L2439.88 632.113C2442.17 628.246 2446.08 625.62 2450.53 624.966V624.966C2456.55 624.081 2461.43 619.62 2462.85 613.701L2463.04 612.91C2463.35 611.642 2463.8 610.414 2464.4 609.256L2468.31 601.722C2469.66 599.128 2472.33 597.5 2475.26 597.5H2476.85C2477.28 597.5 2477.69 597.619 2478.05 597.843V597.843C2479.55 598.782 2481.5 597.702 2481.5 595.93V595.21C2481.5 594.168 2482.11 593.223 2483.06 592.793L2484.45 592.161C2485.83 591.531 2487.46 592.198 2488.01 593.618V593.618C2488.7 595.425 2491.04 595.896 2492.38 594.5L2498.23 588.408C2500.24 586.309 2503.25 585.486 2506.05 586.265L2508.29 586.886C2509.66 587.265 2511.12 586.88 2512.12 585.877V585.877C2513.49 584.508 2515.65 584.339 2517.22 585.477L2517.33 585.56C2518.89 586.693 2521.03 586.588 2522.47 585.308L2522.62 585.172C2523.78 584.138 2525.41 583.803 2526.89 584.296L2535.7 587.232C2539.17 588.389 2542.89 588.592 2546.46 587.818L2559.5 585" stroke="white" stroke-width="3" stroke-linecap="round" stroke-linejoin="round"/>
<path d="M1499.63 476.767C1496.28 478.084 1489.49 480.493 1488 479C1487.64 478.641 1487.57 478.186 1487.7 477.68C1488.94 472.774 1493.57 469.249 1494.61 464.294C1495.19 461.465 1495.17 458.541 1494.53 455.723L1493.85 452.74C1493.29 450.255 1493 447.713 1493 445.164V434.925C1493 433.658 1493.28 432.407 1493.83 431.264L1496.05 426.65C1497.49 423.646 1501.47 422.969 1503.82 425.325C1505.15 426.651 1505.59 428.627 1504.95 430.391C1504.36 432.006 1504.68 433.812 1505.78 435.133L1507.62 437.343C1508.53 438.435 1509.19 439.71 1509.56 441.082L1511.86 449.619C1512.28 451.191 1513.01 452.664 1514 453.954L1514.82 455.015C1516.52 457.226 1517.16 460.072 1516.58 462.799L1516.51 463.131C1516.18 464.678 1516.29 466.288 1516.84 467.772L1519.62 475.271C1520.29 477.079 1518.95 479 1517.02 479C1516.36 479 1515.72 478.764 1515.22 478.334L1514.63 477.829C1513.31 476.697 1511.49 476.357 1509.85 476.935L1505.77 478.374C1504.71 478.75 1503.52 478.424 1502.8 477.556C1502.03 476.634 1500.74 476.328 1499.63 476.767Z" stroke="white" stroke-width="3" stroke-linecap="round" stroke-linejoin="round"/>
<path d="M1671 532L1669.91 527.081C1669.32 524.418 1669.51 521.64 1670.47 519.086L1671.67 515.88C1672.79 512.886 1672.14 509.515 1669.98 507.158L1669.19 506.297C1668.42 505.456 1667.39 504.898 1666.27 504.711L1665.9 504.649C1663.65 504.275 1662 502.33 1662 500.051V500.051C1662 498.744 1661.45 497.497 1660.49 496.614L1658.63 494.91C1657.1 493.513 1654.8 493.399 1653.15 494.64V494.64C1652.4 495.198 1651.49 495.5 1650.56 495.5V495.5C1648.73 495.5 1647.08 496.64 1646.45 498.357L1644.45 503.79C1644.16 504.572 1643.6 505.227 1642.88 505.64V505.64C1641.48 506.441 1640.8 508.103 1641.23 509.66V509.66C1641.67 511.302 1640.9 513.048 1639.38 513.809V513.809C1638.5 514.25 1637.48 514.307 1636.55 513.966L1635.37 513.531C1631.72 512.186 1627.71 514.339 1626.82 518.127L1626.69 518.708C1626.56 519.234 1626.5 519.773 1626.5 520.313V524.394C1626.5 526.938 1624.44 529 1621.89 529V529C1620.99 529 1620.1 529.269 1619.34 529.774L1617.87 530.756C1616.64 531.576 1615.25 532.126 1613.79 532.369L1610.76 532.873C1610.26 532.957 1609.76 533.1 1609.29 533.297L1607.96 533.848C1605.68 534.799 1603.05 533.949 1601.75 531.842L1601.25 531.032C1600.49 529.801 1599.07 529.143 1597.64 529.363L1597.2 529.431C1595.25 529.73 1593.5 528.225 1593.5 526.256V526.256C1593.5 525.448 1593.2 524.671 1592.65 524.077L1589.03 520.153C1588.05 519.099 1586.68 518.5 1585.25 518.5H1584.24C1583.15 518.5 1582.14 517.958 1581.54 517.055V517.055C1580.9 516.093 1579.79 515.544 1578.63 515.617L1575.67 515.802C1573.63 515.93 1571.61 515.306 1569.99 514.049L1568.74 513.076C1568.25 512.694 1567.71 512.379 1567.13 512.139L1564.91 511.211C1563.2 510.502 1562.21 508.713 1562.52 506.893L1562.85 504.902C1562.94 504.366 1562.67 503.834 1562.18 503.591V503.591C1561.54 503.271 1561.31 502.477 1561.67 501.859L1563.79 498.213C1564.26 497.419 1564.5 496.515 1564.5 495.595V493.837C1564.5 493.01 1564.06 492.247 1563.34 491.837L1562.44 491.322C1561.68 490.89 1561.49 489.886 1562.03 489.207V489.207C1562.55 488.558 1562.41 487.604 1561.71 487.143L1561.12 486.748C1560.44 486.293 1559.55 486.284 1558.86 486.724L1557.28 487.728C1555.6 488.801 1553.43 488.753 1551.8 487.608L1547.33 484.482C1545.48 483.183 1543.31 482.387 1541.06 482.172L1536.69 481.756C1534.95 481.591 1533.32 480.825 1532.09 479.59V479.59C1531.37 478.871 1530.51 478.305 1529.57 477.927L1528.42 477.468C1526.82 476.829 1525.12 476.5 1523.39 476.5H1520" stroke="white" stroke-width="3" stroke-linecap="round" stroke-linejoin="round"/>
<path d="M1503 424.5L1502.07 423.3C1500.58 421.384 1500.65 418.68 1502.25 416.854V416.854C1502.74 416.292 1503.11 415.628 1503.31 414.909L1503.42 414.527C1503.8 413.206 1504.56 412.03 1505.62 411.15L1507.12 409.9C1509 408.331 1510.41 406.268 1511.19 403.943L1512.41 400.258C1513.13 398.116 1514.33 396.169 1515.93 394.571V394.571C1518.24 392.258 1519.71 389.233 1520.09 385.984L1520.3 384.22C1520.43 383.08 1520.4 381.926 1520.19 380.796L1519.94 379.412C1519.65 377.846 1519.88 376.231 1520.6 374.807L1521.07 373.856C1521.66 372.67 1521.75 371.294 1521.3 370.046L1521.25 369.91C1520.31 367.279 1517.3 366.036 1514.77 367.226V367.226C1512.62 368.236 1510.05 367.493 1508.78 365.487L1506.29 361.537C1505.68 360.569 1506.25 359.292 1507.38 359.104V359.104C1507.78 359.037 1508.19 359.125 1508.53 359.351L1509.14 359.763C1510.28 360.517 1511.74 360.544 1512.9 359.832L1515.81 358.041C1516.82 357.419 1518.11 357.512 1519.03 358.272V358.272C1519.91 359.01 1521.16 359.12 1522.17 358.548L1522.52 358.343C1523.45 357.813 1524.58 357.756 1525.55 358.19L1525.89 358.341C1527.41 359.016 1529.19 358.53 1530.16 357.179V357.179C1530.7 356.424 1531.51 355.914 1532.43 355.762L1534.74 355.377C1536.16 355.14 1537.38 354.238 1538.02 352.95V352.95C1538.34 352.325 1538.5 351.636 1538.5 350.938V346.5" stroke="white" stroke-width="3" stroke-linecap="round" stroke-linejoin="round"/>
<path d="M1538.5 347V342.82C1538.5 340.067 1539.66 337.441 1541.68 335.581L1542.9 334.471C1543.93 333.525 1545.28 333 1546.68 333V333C1548.73 333 1550.61 334.119 1551.59 335.917L1551.99 336.648C1552.64 337.844 1552.85 339.232 1552.59 340.569L1552.18 342.606C1551.8 344.506 1552.98 346.37 1554.86 346.84V346.84C1555.28 346.946 1555.68 347.128 1556.04 347.377L1559.66 349.879C1560.76 350.639 1562.27 350.011 1562.51 348.699V348.699C1562.74 347.413 1564.21 346.777 1565.31 347.483L1568.19 349.335C1569.32 350.065 1570.74 350.194 1571.99 349.68L1573.7 348.976C1575.99 348.034 1578.5 349.716 1578.5 352.19V352.19C1578.5 353.324 1579.05 354.387 1579.98 355.038L1582.09 356.514C1582.92 357.092 1583.24 358.161 1582.86 359.096V359.096C1582.63 359.671 1582.66 360.317 1582.94 360.871L1583.2 361.404C1583.95 362.909 1585.67 363.665 1587.29 363.203L1588 363C1590.03 362.42 1592.18 363.368 1593.13 365.256L1593.56 366.115C1594.16 367.329 1595.2 368.279 1596.46 368.783L1598.9 369.761C1600.77 370.509 1602 372.321 1602 374.337V374.73C1602 375.236 1602.12 375.736 1602.34 376.189V376.189C1603.02 377.543 1602.68 379.185 1601.51 380.154L1600.39 381.095C1598.67 382.526 1598.08 384.907 1598.93 386.974L1600.31 390.314C1600.76 391.427 1601 392.62 1601 393.824V395.715C1601 395.903 1601.04 396.087 1601.13 396.255V396.255C1601.53 397.057 1602.63 397.156 1603.17 396.439L1604.76 394.325C1605.7 393.06 1607.52 392.849 1608.73 393.86V393.86C1609.23 394.274 1609.85 394.5 1610.5 394.5H1611.2C1612.9 394.5 1614.43 393.486 1615.1 391.923L1615.51 390.984C1616.3 389.133 1618.54 388.395 1620.27 389.41L1621.82 390.313C1622.48 390.699 1623.33 390.503 1623.76 389.866V389.866C1624.34 388.991 1625.63 389.01 1626.19 389.901L1626.86 390.984C1627.26 391.62 1627.32 392.411 1627.02 393.098L1624.34 399.233C1624.11 399.743 1623.84 400.23 1623.52 400.686L1622.02 402.829C1621.09 404.157 1621 405.899 1621.79 407.316L1621.82 407.374C1622.55 408.686 1622.51 410.29 1621.71 411.562L1621.49 411.916C1620.87 412.901 1619.79 413.5 1618.63 413.5V413.5C1617.09 413.5 1615.74 414.553 1615.36 416.053L1615.27 416.41C1615.1 417.11 1615.2 417.849 1615.56 418.475V418.475C1616.34 419.853 1618.12 420.3 1619.47 419.459L1619.93 419.167C1620.62 418.737 1621.44 418.574 1622.24 418.707L1624.17 419.028C1626.01 419.334 1627.89 419.028 1629.54 418.157L1633.9 415.848C1634.96 415.283 1635.98 414.637 1636.95 413.913L1640.49 411.259C1641.16 410.754 1641.88 410.311 1642.63 409.934L1643.47 409.513C1646.06 408.218 1648.08 406.001 1649.12 403.299V403.299C1649.7 401.783 1650.59 400.407 1651.74 399.258L1654.14 396.863C1654.7 396.297 1655.12 395.596 1655.34 394.827V394.827C1655.75 393.366 1656.85 392.197 1658.28 391.686L1659.39 391.289C1661.64 390.486 1663.32 388.593 1663.86 386.266L1663.98 385.736C1664.32 384.275 1665.06 382.938 1666.12 381.877L1666.81 381.19C1669.15 378.847 1670.36 375.6 1670.11 372.295L1669.73 367.082C1669.59 365.196 1668.39 363.555 1666.63 362.852V362.852C1665.28 362.312 1664.23 361.204 1663.77 359.823L1663.61 359.319C1663.21 358.135 1663.19 356.858 1663.54 355.661L1666.12 346.984C1666.65 345.165 1666.09 343.2 1664.66 341.951L1664.29 341.63C1663.47 340.912 1663 339.874 1663 338.783V338.783C1663 336.694 1664.7 335 1666.79 335V335C1669.5 335 1671.35 337.759 1670.31 340.262L1670.12 340.706C1670.04 340.902 1669.94 341.089 1669.82 341.265V341.265C1668.82 342.776 1669.22 344.816 1670.73 345.823L1672.74 347.161C1673.57 347.711 1674.52 348.036 1675.51 348.104L1684.06 348.694C1686.63 348.871 1688.95 347.18 1689.58 344.682L1689.65 344.4C1689.88 343.49 1690.39 342.677 1691.11 342.076V342.076C1692.28 341.096 1693.88 340.803 1695.35 341.242C1696.67 341.639 1698.02 342 1698.5 342C1699.01 342 1702.08 342.267 1705.16 342.548C1708.22 342.828 1710.99 344.487 1712.7 347.047V347.047C1713.55 348.332 1714.69 349.407 1716.02 350.19L1716.81 350.655C1720.42 352.777 1724.78 353.203 1728.73 351.821L1732.5 350.5L1741.28 348.504C1742.69 348.183 1744.18 348.474 1745.36 349.304V349.304C1747.22 350.607 1748.01 352.978 1747.29 355.132L1747.15 355.556C1746.73 356.807 1745.86 357.855 1744.71 358.495L1743.23 359.319C1742.47 359.739 1742 360.537 1742 361.402V361.402C1742 362.799 1743.2 363.896 1744.59 363.775L1750.58 363.254C1752.15 363.117 1753.5 364.354 1753.5 365.928V365.928C1753.5 366.616 1753.76 367.278 1754.24 367.777L1762.46 376.436C1762.82 376.808 1763.08 377.252 1763.25 377.738L1763.27 377.803C1763.71 379.128 1763.29 380.588 1762.22 381.483L1761.89 381.755C1761.33 382.227 1761 382.927 1761 383.664V383.664C1761 384.755 1761.71 385.719 1762.75 386.04L1766.24 387.113C1767.07 387.369 1767.95 387.477 1768.82 387.431L1782.62 386.704C1785.12 386.573 1787.48 385.521 1789.25 383.75V383.75C1790.08 382.923 1791.04 382.245 1792.1 381.747L1796.09 379.87C1798.02 378.962 1800.08 378.36 1802.19 378.084L1809.82 377.089C1810.25 377.032 1810.7 377.149 1811.05 377.414V377.414C1811.84 378.002 1811.96 379.13 1811.32 379.874L1808.89 382.716C1807.79 383.995 1808.42 385.981 1810.06 386.389V386.389C1810.35 386.462 1810.65 386.476 1810.95 386.431L1812.56 386.183C1815.29 385.762 1817.58 383.875 1818.51 381.267V381.267C1819.15 379.488 1820.43 378.012 1822.1 377.131L1826.72 374.7C1828.22 373.912 1829.88 373.5 1831.58 373.5H1839.25C1840.77 373.5 1842 372.269 1842 370.75V370.615C1842 369.171 1840.83 368 1839.38 368H1839.32C1838.23 368 1837.27 367.305 1836.93 366.276V366.276C1836.66 365.478 1836.81 364.601 1837.32 363.936L1841.85 358.079C1843.71 355.672 1846.95 354.813 1849.76 355.983V355.983C1850.58 356.324 1851.46 356.5 1852.35 356.5H1863.38C1864.45 356.5 1865.52 356.327 1866.54 355.988V355.988C1870.18 354.773 1872.8 351.574 1873.28 347.762L1873.77 343.88C1873.92 342.642 1874.35 341.454 1875.02 340.402L1876.64 337.845C1877.18 337.007 1878.1 336.5 1879.09 336.5H1880.88C1881.5 336.5 1882 336 1882 335.382V335.382C1882 334.534 1882.91 333.995 1883.65 334.401L1886.61 336.014C1887.19 336.33 1887.85 336.454 1888.51 336.369L1908.54 333.756C1909.83 333.587 1911.14 333.703 1912.39 334.096L1916.73 335.466C1918.59 336.055 1920.6 335.149 1921.39 333.362V333.362C1921.78 332.486 1922.49 331.787 1923.37 331.402L1927.82 329.452C1929.27 328.821 1930.79 328.401 1932.36 328.205L1940.98 327.128C1941.62 327.047 1942.27 327.269 1942.73 327.728V327.728C1943.46 328.461 1944.62 328.551 1945.45 327.942L1946.94 326.86C1948.39 325.807 1950.4 326.032 1951.58 327.38V327.38C1952.45 328.372 1953.81 328.785 1955.08 328.445L1958.3 327.587C1959.74 327.202 1961.26 327.19 1962.71 327.553L1970.95 329.613C1971.96 329.865 1973.02 329.793 1973.98 329.408L1978.2 327.721C1979.1 327.358 1980.11 327.959 1980.21 328.93V328.93C1980.34 330.066 1981.65 330.634 1982.57 329.948L1984.68 328.364C1985.76 327.558 1986.16 326.134 1985.67 324.884L1981 313L1980 309.408C1979.17 306.398 1980.88 303.268 1983.86 302.349V302.349C1984.61 302.119 1985.31 301.738 1985.9 301.231L1992.86 295.321C1993.92 294.417 1995.56 294.801 1996.11 296.085V296.085C1996.36 296.663 1996.33 297.323 1996.03 297.878L1993.45 302.716C1992.85 303.845 1992.79 305.185 1993.28 306.367V306.367C1994.22 308.617 1996.84 309.627 1999.05 308.583L2003.38 306.528C2004.12 306.178 2004.91 305.932 2005.72 305.797L2007.86 305.44C2009.52 305.164 2011.2 305.705 2012.39 306.893V306.893C2013.7 308.198 2015.6 308.714 2017.38 308.248L2025.23 306.201C2025.73 306.07 2026.26 306.087 2026.75 306.252V306.252C2028.04 306.679 2028.8 307.995 2028.54 309.321L2028.35 310.249C2028.13 311.357 2028.42 312.506 2029.14 313.376L2037.24 323.189C2037.41 323.396 2037.61 323.581 2037.82 323.742V323.742C2038.85 324.513 2040.23 324.637 2041.38 324.062L2044.57 322.465C2045.81 321.846 2047.24 321.727 2048.56 322.134V322.134C2051.11 322.919 2053.85 321.718 2055 319.311L2056.18 316.856C2057.6 313.889 2060.59 312 2063.88 312H2065.57C2067.16 312 2068.73 311.6 2070.13 310.837V310.837C2072.29 309.658 2074.83 309.362 2077.2 310.009L2078.06 310.243C2078.68 310.414 2079.33 310.5 2079.98 310.5H2080.84C2082.22 310.5 2083.55 311.049 2084.53 312.027L2086 313.497C2086.31 313.811 2086.76 313.948 2087.2 313.861V313.861C2088.49 313.603 2089.33 315.173 2088.4 316.103L2087.94 316.564C2087.4 317.101 2087.34 317.951 2087.79 318.559L2089.64 321.025C2089.88 321.341 2090.15 321.627 2090.46 321.88L2095.89 326.407C2097.14 327.449 2096.62 329.475 2095.03 329.794V329.794C2094.39 329.923 2093.85 330.366 2093.61 330.974L2092.4 333.994C2091.52 336.212 2091.67 338.712 2092.83 340.801L2094.41 343.631C2095.39 345.402 2097.26 346.5 2099.28 346.5H2099.75C2101.72 346.5 2103.49 347.683 2104.25 349.5L2104.59 350.325C2105.14 351.642 2106.43 352.5 2107.86 352.5V352.5C2108.9 352.5 2109.89 352.96 2110.56 353.758L2116.71 361.065C2117.23 361.681 2117.88 362.176 2118.61 362.517L2124.03 365.048C2124.52 365.278 2125.1 364.986 2125.21 364.453V364.453C2125.34 363.813 2126.11 363.558 2126.6 363.997L2128.82 366.016C2129.97 367.06 2131.78 366.837 2132.64 365.545L2134.28 363.077C2134.75 362.382 2135.44 361.874 2136.24 361.644V361.644C2137.61 361.254 2138.61 360.081 2138.77 358.67L2139.29 354.262C2139.42 353.149 2139.04 352.038 2138.25 351.245V351.245C2136.96 349.957 2136.81 347.917 2137.91 346.46L2139.17 344.772C2140 343.669 2140.2 342.219 2139.7 340.932L2139.04 339.208C2138.5 337.793 2139.36 336.228 2140.84 335.931V335.931C2142.07 335.686 2142.91 334.556 2142.8 333.311L2142.67 331.819C2142.56 330.661 2142.95 329.512 2143.74 328.658L2145.03 327.256C2147.15 324.967 2147.73 321.657 2146.53 318.782V318.782C2146.18 317.934 2145.98 317.031 2145.93 316.113L2145.86 314.618C2145.63 310.074 2143.54 305.823 2140.09 302.862L2136.13 299.469C2135.4 298.844 2134.47 298.5 2133.51 298.5V298.5C2132.54 298.5 2131.6 298.854 2130.86 299.495L2129.83 300.398C2128.64 301.441 2127.16 302.089 2125.58 302.255L2121.22 302.714C2119.48 302.897 2117.74 302.376 2116.38 301.268L2115.58 300.612C2114.02 299.333 2113.38 297.24 2113.96 295.305V295.305C2114.31 294.142 2115.07 293.145 2116.1 292.501L2117.57 291.583C2118.17 291.204 2118.64 290.642 2118.91 289.978L2119.91 287.471C2120.21 286.722 2119.73 285.89 2118.93 285.776V285.776C2118.03 285.647 2117.57 284.627 2118.06 283.864L2127.36 269.596C2129.62 266.113 2129.95 261.709 2128.21 257.933L2120.27 240.669C2119.8 239.652 2118.78 239 2117.66 239H2117.48C2116.31 239 2115.28 238.223 2114.96 237.096V237.096C2114.68 236.121 2113.86 235.394 2112.86 235.227L2111.48 234.996C2109.66 234.693 2108.16 233.378 2107.63 231.608L2105.5 224.5L2105.39 224.249C2103.16 219.144 2099.84 214.588 2095.66 210.896L2092.22 207.853C2090.1 205.976 2088.44 203.638 2087.36 201.019L2086.06 197.857C2085.69 196.968 2085.56 195.998 2085.68 195.043L2086.14 191.404C2086.33 189.885 2087.84 188.901 2089.3 189.341V189.341C2090.54 189.713 2091.86 189.067 2092.32 187.859L2093.24 185.479C2093.73 184.21 2094.69 183.181 2095.93 182.611L2097.68 181.802C2099.52 180.954 2101.05 179.568 2102.08 177.827L2104.81 173.233C2107.1 169.369 2111.25 167 2115.75 167V167C2118.2 167 2120.59 166.292 2122.65 164.96L2124.64 163.676C2126.86 162.239 2128.78 160.389 2130.31 158.228L2131.62 156.365C2133.19 154.141 2135.16 152.226 2137.43 150.715L2137.66 150.561C2141.14 148.239 2145.23 147 2149.42 147H2151.03C2153.95 147 2156.81 146.178 2159.29 144.629V144.629C2162.03 142.918 2165.23 142.099 2168.45 142.283L2175.11 142.663C2178.93 142.881 2182.71 141.817 2185.85 139.64V139.64C2186.95 138.883 2187.95 138 2188.84 137.011L2200.18 124.408C2200.73 123.804 2201.33 123.255 2201.98 122.767V122.767C2203.95 121.289 2205.44 119.261 2206.26 116.939L2209.32 108.332C2210.08 106.177 2210.08 103.824 2209.31 101.67V101.67C2208.47 99.311 2208.55 96.7204 2209.54 94.4177L2213.32 85.5788C2213.76 84.5515 2213.88 83.4131 2213.64 82.3197L2211.46 72.0058C2211.13 70.4922 2212.89 69.4108 2214.1 70.3774V70.3774C2214.85 70.981 2215.96 70.8087 2216.5 70.0048L2216.98 69.2851C2217.31 68.7799 2217.83 68.4184 2218.42 68.2712L2219.56 67.9857C2220.77 67.6832 2221.74 66.7834 2222.13 65.6001V65.6001C2222.99 63.0272 2226.26 62.2563 2228.17 64.1741L2231.96 67.9645C2233.83 69.8305 2236.92 69.6112 2238.5 67.5V67.5" stroke="white" stroke-width="3" stroke-linecap="round" stroke-linejoin="round"/>
<path d="M1046 779L1044.19 768.601C1044.07 767.913 1043.62 767.33 1042.98 767.046L1042.58 766.867C1041.24 766.274 1041.09 764.443 1042.3 763.633V763.633C1043.21 763.026 1043.4 761.766 1042.71 760.919L1040.35 758.037C1039.81 757.381 1039.01 757 1038.16 757V757C1036.88 757 1035.77 756.146 1035.43 754.916L1034.84 752.751C1034.62 751.927 1034.21 751.164 1033.66 750.516L1028.73 744.765C1028.58 744.589 1028.44 744.4 1028.32 744.201L1028.21 744.012C1026.85 741.75 1023.71 741.414 1021.9 743.339L1019.97 745.399C1019.01 746.418 1017.34 746.173 1016.71 744.924V744.924C1016.57 744.645 1016.5 744.338 1016.5 744.026V741.053C1016.5 740.024 1016.67 739.002 1016.99 738.027L1017.43 736.696C1017.8 735.595 1017.8 734.405 1017.43 733.304L1016.97 731.896C1016.68 731.027 1016.85 730.07 1017.43 729.361V729.361C1018.86 727.618 1017.62 725 1015.37 725H1012.09C1011.38 725 1010.67 724.817 1010.04 724.469L1007.48 723.044C1006.84 722.687 1006.11 722.5 1005.38 722.5V722.5C1003.64 722.5 1002.06 721.451 1001.39 719.841L1001.04 719C1000.38 717.418 1000.47 715.624 1001.28 714.116L1002.07 712.656C1003 710.931 1003.35 708.953 1003.07 707.013L1003 706.488C1002.67 704.222 1003.08 701.911 1004.16 699.891L1005.41 697.539C1006.13 696.185 1007.02 694.923 1008.05 693.783L1009.97 691.641C1010.65 690.888 1011.17 690.004 1011.49 689.044L1012.65 685.564C1013.38 683.372 1012.09 681.021 1009.84 680.461V680.461C1008.68 680.169 1007.71 679.365 1007.2 678.275L1006.09 675.859C1005.38 674.315 1004.26 672.989 1002.86 672.021L1000 670.039C999.024 669.363 998.282 668.401 997.876 667.285V667.285C997.05 665.014 997.737 662.469 999.594 660.922L1000.34 660.298C1001.73 659.143 1002.62 657.504 1002.85 655.713L1003.4 651.295C1003.47 650.77 1003.63 650.261 1003.88 649.796V649.796C1005.21 647.369 1003.88 644.345 1001.2 643.675L988.5 640.5L978.561 638.326C974.532 637.445 970.42 637 966.295 637H964.341C954.65 637 945.162 639.776 937 645V645L932.011 648.628C928.25 651.364 923.38 652.064 919 650.5V650.5M1145.5 335.5V335.5C1145.5 332.228 1144.61 329.018 1142.93 326.213L1140.74 322.562C1139.92 321.196 1138.88 319.972 1137.67 318.935L1137.1 318.439C1134.18 315.939 1132.5 312.289 1132.5 308.447V308.447C1132.5 306.187 1133.08 303.965 1134.19 301.995L1134.45 301.531C1136.1 298.594 1136.73 295.191 1136.24 291.857L1135.73 288.457C1135.25 285.184 1135.41 281.848 1136.22 278.638L1136.46 277.651C1136.82 276.219 1137.29 274.817 1137.86 273.457L1139.6 269.333C1140.51 267.153 1140.81 264.763 1140.46 262.424L1140.02 259.456C1139.69 257.282 1140.42 255.083 1141.97 253.529V253.529C1143.27 252.23 1144 250.468 1144 248.63V246.012C1144 243.396 1144.77 240.839 1146.23 238.662L1149 234.5M1151.5 229.5L1150.21 225.896C1149.41 223.648 1148.24 221.548 1146.75 219.684V219.684C1143.08 215.095 1141.44 209.206 1142.22 203.38L1143.63 192.795C1143.87 190.962 1144.58 189.223 1145.69 187.744V187.744C1146.56 186.593 1147.18 185.281 1147.53 183.885L1148.06 181.742C1148.68 179.267 1149.73 176.92 1151.17 174.809L1155.37 168.609C1157.45 165.548 1159.13 162.239 1160.39 158.759L1162.23 153.639C1162.74 152.224 1163 150.731 1163 149.226V146.509C1163 143.143 1164.94 140.078 1167.97 138.632V138.632C1171.29 137.052 1173.26 133.564 1172.91 129.908L1172 120.628C1171.67 117.255 1172.13 113.851 1173.33 110.683L1175.84 104.057C1176.61 102.026 1177.14 99.9118 1177.42 97.7575L1177.97 93.5775C1178.32 90.9169 1179.43 88.4151 1181.18 86.3779V86.3779C1183.32 83.8755 1184.5 80.6884 1184.5 77.3925V64.8826C1184.5 61.7409 1185.67 58.7119 1187.78 56.3871V56.3871C1188.92 55.1416 1189.79 53.6823 1190.35 52.095L1190.69 51.1391C1191.86 47.824 1194.18 45.0403 1197.23 43.2962V43.2962C1198.73 42.4388 1200.07 41.3228 1201.18 39.9996L1210 29.5L1213.29 25.1145C1214.09 24.0517 1214.64 22.8238 1214.9 21.5211L1215.22 19.885C1215.7 17.5126 1217.5 15.6259 1219.84 15.0391V15.0391C1221.24 14.6904 1222.47 13.8721 1223.33 12.7218L1225.68 9.59072C1226.23 8.8653 1226.84 8.19454 1227.51 7.58793L1229.21 6.06525C1230.68 4.73568 1232.6 4 1234.59 4V4C1236.47 4 1238.29 3.34016 1239.74 2.13529L1240.5 1.5" stroke="white" stroke-width="3" stroke-linecap="round" stroke-linejoin="round"/>
<path d="M1145 334.5L1145.65 334.879C1148.89 336.766 1152.94 336.507 1155.91 334.223L1157.08 333.324C1157.36 333.11 1157.68 332.959 1158.02 332.881L1159.89 332.449C1161.36 332.108 1162.5 333.75 1161.66 335.013V335.013C1161.26 335.604 1161.29 336.38 1161.71 336.949L1161.92 337.225C1162.88 338.505 1162.16 340.35 1160.59 340.649L1158.84 340.982C1156.42 341.444 1155.36 344.319 1156.9 346.246L1157.03 346.416C1157.34 346.801 1157.73 347.114 1158.17 347.335L1159.64 348.069C1162.12 349.309 1164.98 349.556 1167.64 348.759L1173.5 347L1179.74 344.573C1181.53 343.877 1183.04 342.613 1184.04 340.975L1186.53 336.905C1187.37 335.524 1189.1 334.973 1190.59 335.61V335.61C1191.18 335.864 1191.84 335.937 1192.47 335.818L1196.39 335.084C1198.33 334.719 1200.34 335.338 1201.74 336.741L1201.89 336.89C1202.92 337.921 1203.5 339.319 1203.5 340.777V341.234C1203.5 343.455 1204.99 345.398 1207.14 345.97L1208.38 346.302C1209.91 346.708 1211.51 345.988 1212.21 344.578V344.578C1212.95 343.099 1214.67 342.388 1216.23 342.911L1220.09 344.198C1221.66 344.72 1223.35 344.745 1224.93 344.271L1231.26 342.372C1232.07 342.13 1232.93 342.143 1233.73 342.409V342.409C1235.62 343.039 1237.69 342.214 1238.62 340.456L1239.88 338.107C1240.54 336.862 1241.95 336.212 1243.33 336.518V336.518C1244.63 336.807 1245.97 336.245 1246.68 335.116L1247.01 334.59C1247.62 333.601 1248.71 333 1249.87 333V333C1250.9 333 1251.87 332.533 1252.52 331.731L1255.12 328.476C1256.39 326.889 1258.76 326.757 1260.2 328.195L1260.29 328.295C1261.31 329.306 1262.86 329.53 1264.12 328.845L1265.89 327.878C1266.73 327.42 1267.78 327.833 1268.08 328.739V328.739C1268.32 329.462 1269.06 329.899 1269.81 329.762L1270.81 329.58C1272.47 329.278 1274 330.554 1274 332.243V332.965C1274 333.939 1274.43 334.865 1275.18 335.479C1277.54 337.396 1280.99 340 1282 340C1282.86 340 1285.29 340.339 1287.34 340.654C1288.73 340.868 1290.15 340.565 1291.32 339.784L1291.74 339.506C1293.14 338.575 1294.93 338.463 1296.43 339.214V339.214C1297.44 339.721 1298.6 339.842 1299.7 339.556L1309.33 337.044C1309.44 337.015 1309.54 336.958 1309.62 336.877V336.877C1309.99 336.51 1309.79 335.881 1309.28 335.796L1306.18 335.28C1305.19 335.114 1304.42 334.308 1304.31 333.306L1304.22 332.436C1304.08 331.236 1304.59 330.055 1305.56 329.331L1306.9 328.325C1307.62 327.785 1308.47 327.453 1309.37 327.363L1311.25 327.175C1312.29 327.071 1313.14 326.301 1313.34 325.276V325.276C1313.67 323.673 1315.47 322.865 1316.88 323.694L1321.15 326.206C1321.99 326.698 1322.5 327.596 1322.5 328.567V328.567C1322.5 330.604 1324.64 331.928 1326.47 331.017L1327.5 330.5V330.5C1329.05 329.569 1330 327.893 1330 326.085V323.906C1330 322.715 1330.6 321.603 1331.59 320.943V320.943C1333.2 319.865 1333.66 317.689 1332.61 316.054L1331.69 314.63C1330.77 313.194 1328.84 312.814 1327.44 313.793L1326.83 314.216C1325.82 314.927 1324.42 314.687 1323.7 313.678V313.678C1323.02 312.727 1321.73 312.45 1320.72 313.039L1317.76 314.765C1316.98 315.22 1316.5 316.056 1316.5 316.959V316.959C1316.5 318.362 1315.36 319.5 1313.96 319.5H1308.89C1308.33 319.5 1307.8 319.755 1307.44 320.194V320.194C1306.7 321.12 1305.3 321.12 1304.56 320.194L1302.53 317.662C1302.18 317.225 1301.75 316.857 1301.26 316.579L1299.48 315.56C1296.74 313.992 1295.12 311.004 1295.3 307.849V307.849C1295.43 305.7 1296.38 303.684 1297.96 302.225L1299.23 301.053C1301.04 299.387 1302.32 297.231 1302.91 294.849L1303.2 293.714C1303.72 291.616 1304.84 289.715 1306.42 288.239L1309.91 284.984C1310.88 284.075 1312.29 283.796 1313.54 284.264V284.264C1314.75 284.717 1316.11 284.469 1317.08 283.619L1318.53 282.346C1319.13 281.827 1319.96 281.684 1320.69 281.977V281.977C1322.28 282.612 1323.92 281.181 1323.51 279.522L1323.32 278.777C1322.91 277.15 1324.2 275.594 1325.87 275.687L1329.58 275.893C1330.8 275.961 1331.94 276.545 1332.7 277.499V277.499C1333.22 278.152 1333.54 278.943 1333.62 279.776L1334.17 285.502C1334.32 287.109 1336.11 287.993 1337.48 287.138V287.138C1338.11 286.741 1338.5 286.045 1338.5 285.296V278.988C1338.5 278.675 1338.62 278.376 1338.84 278.155V278.155C1339.41 277.587 1340.37 277.742 1340.73 278.461L1341.21 279.419C1341.4 279.796 1341.7 280.102 1342.08 280.291L1342.65 280.576C1343.81 281.153 1344.6 282.27 1344.76 283.551L1344.99 285.403C1345.23 287.332 1347.37 288.376 1349.04 287.376V287.376C1349.93 286.841 1351.05 286.868 1351.92 287.444L1353.94 288.791C1354.6 289.234 1355 289.98 1355 290.778V290.778C1355 291.807 1354.34 292.719 1353.37 293.044L1352.41 293.365C1351.27 293.744 1350.5 294.809 1350.5 296.009V296.009C1350.5 296.94 1350.97 297.81 1351.74 298.327L1353.11 299.239C1354.19 299.96 1354.56 301.371 1353.98 302.533V302.533C1353.1 304.3 1350.64 304.454 1349.54 302.809L1348.95 301.922C1348.36 301.034 1347.36 300.5 1346.29 300.5H1344.6C1343.02 300.5 1341.87 301.978 1342.25 303.504V303.504C1342.41 304.14 1342.3 304.814 1341.96 305.371L1341.2 306.58C1340.63 307.494 1341.17 308.695 1342.23 308.872V308.872C1342.71 308.952 1343.2 308.795 1343.55 308.45L1344.61 307.387C1345.5 306.504 1346.71 306.034 1347.96 306.093L1354.72 306.415C1355.89 306.471 1357.02 306.82 1358.02 307.43L1362.31 310.048C1363.94 311.047 1366.08 310.266 1366.68 308.45V308.45C1367.15 307.044 1366.52 305.508 1365.19 304.845L1362.08 303.29C1361.11 302.806 1360.5 301.816 1360.5 300.733V300.733C1360.5 299.421 1361.39 298.277 1362.67 297.958L1363.68 297.704C1364.21 297.574 1364.65 297.236 1364.92 296.77V296.77C1365.64 295.497 1367.46 295.435 1368.27 296.654L1369.17 298.005C1369.39 298.332 1369.67 298.612 1370 298.83L1375.29 302.359C1375.43 302.453 1375.58 302.534 1375.73 302.603L1376.01 302.726C1377.87 303.554 1378.25 306.034 1376.71 307.376L1376.47 307.592C1376.16 307.857 1375.96 308.214 1375.88 308.608V308.608C1375.67 309.635 1376.37 310.625 1377.41 310.773L1377.57 310.795C1378.42 310.917 1379.1 311.577 1379.24 312.427L1379.59 314.538C1379.85 316.085 1380.83 317.415 1382.23 318.116L1382.73 318.367C1383.57 318.783 1384.48 319 1385.42 319H1386.69C1388.22 319 1389.72 318.696 1391.12 318.105L1398.5 315L1401.25 313.968C1404.72 312.667 1408.4 312 1412.11 312V312C1414.36 312 1416.61 312.247 1418.81 312.736L1424.5 314L1432 316V316C1435.99 317.328 1439.8 319.134 1443.35 321.377L1447.5 324L1456.5 330L1462.92 333.568C1464.63 334.518 1466.2 335.702 1467.58 337.085V337.085C1469.18 338.684 1470.52 340.532 1471.53 342.555L1472.06 343.627C1472.69 344.874 1473.4 346.074 1474.2 347.216L1476.5 350.5L1479.02 353.253C1481 355.409 1483.24 357.304 1485.7 358.893L1489.07 361.075C1490.02 361.687 1491.06 362.14 1492.15 362.413V362.413C1493.7 362.799 1495.31 362.82 1496.86 362.475L1499 362L1507.5 359" stroke="white" stroke-width="3" stroke-linecap="round" stroke-linejoin="round"/>
<path d="M1.5 1594L3.8816 1591.92C4.6805 1591.22 5.92895 1591.5 6.34712 1592.48V1592.48C6.70132 1593.3 7.67818 1593.66 8.48243 1593.26L8.58375 1593.21C9.69386 1592.65 11 1593.46 11 1594.7V1595.61C11 1596.7 11.7885 1597.63 12.8643 1597.81L17 1598.5" stroke="white" stroke-width="3" stroke-linecap="round" stroke-linejoin="round"/>
<path d="M2263.3 450L2256.39 433.2H2252.79L2245.88 450H2249.24L2250.94 445.416H2258.1L2259.78 450H2263.3ZM2253.85 437.52C2254.11 436.848 2254.33 436.272 2254.54 435.576C2254.74 436.272 2254.93 436.824 2255.19 437.52L2257.11 442.752H2251.93L2253.85 437.52ZM2268.63 450.432C2270.57 450.432 2271.61 449.52 2272.21 448.392C2272.13 448.752 2272.09 449.16 2272.09 449.52V450H2274.99V438.288H2272.06V445.248C2272.06 446.976 2271.01 448.08 2269.52 448.08C2268.1 448.08 2267.38 446.904 2267.38 445.272V438.288H2264.43V445.728C2264.43 448.824 2266.28 450.432 2268.63 450.432ZM2282.64 450.432C2285.66 450.432 2287.6 448.8 2287.6 446.568C2287.6 444.504 2286.09 443.448 2283.79 442.992L2282.37 442.704C2280.88 442.416 2280.43 442.056 2280.43 441.36C2280.43 440.52 2281.27 440.088 2282.35 440.088C2283.67 440.088 2284.51 440.832 2284.6 441.984H2287.53C2287.46 439.536 2285.49 437.904 2282.35 437.904C2279.47 437.904 2277.55 439.44 2277.55 441.48C2277.55 443.424 2278.94 444.576 2281.39 445.056L2282.8 445.344C2284.05 445.584 2284.72 445.944 2284.72 446.736C2284.72 447.624 2283.88 448.248 2282.56 448.248C2281 448.248 2280.14 447.36 2280.07 445.968H2277.09C2277.28 448.704 2279.32 450.432 2282.64 450.432ZM2294.93 450.216C2295.67 450.216 2296.37 450.096 2296.66 450V447.792C2296.37 447.84 2296.06 447.864 2295.77 447.864C2294.52 447.864 2294.04 447.144 2294.04 445.92V440.616H2296.92V438.288H2294.04V434.064H2291.11V438.288H2288.45V440.616H2291.11V446.352C2291.11 448.968 2292.43 450.216 2294.93 450.216ZM2301.81 450V444.192C2301.81 441.624 2303.13 440.712 2304.93 440.712C2305.32 440.712 2305.58 440.76 2305.77 440.808V437.976C2305.58 437.928 2305.39 437.904 2305.15 437.904C2303.4 437.904 2302.34 439.08 2301.72 440.4C2301.79 439.968 2301.81 439.608 2301.81 439.176V438.288H2298.89V450H2301.81ZM2307.51 436.512H2310.58V433.44H2307.51V436.512ZM2307.58 438.288V450H2310.51V438.288H2307.58ZM2316.92 450.432C2318.94 450.432 2320.14 449.544 2320.76 448.392C2320.69 448.776 2320.64 449.136 2320.64 449.52V450H2323.35V443.112C2323.35 439.824 2321.91 437.904 2318.34 437.904C2315.31 437.904 2313.32 439.632 2313.13 442.08H2316.15C2316.27 440.856 2317.14 440.088 2318.5 440.088C2319.75 440.088 2320.42 440.808 2320.42 441.624C2320.42 442.2 2320.09 442.536 2319.13 442.68L2317.45 442.896C2314.93 443.232 2312.89 444.144 2312.89 446.784C2312.89 449.088 2314.88 450.432 2316.92 450.432ZM2317.71 448.272C2316.68 448.272 2315.86 447.696 2315.86 446.664C2315.86 445.608 2316.8 445.128 2318.17 444.888L2319.13 444.696C2319.85 444.576 2320.26 444.432 2320.52 444.192V445.464C2320.52 447.12 2319.27 448.272 2317.71 448.272Z" fill="#4A4A4A"/>
<path d="M1214.04 528.432C1218.36 528.432 1220.71 526.152 1220.71 523.008C1220.71 520.2 1218.65 518.712 1216.03 518.208L1213.2 517.656C1211.5 517.32 1210.37 516.864 1210.37 515.568C1210.37 514.2 1211.76 513.432 1213.58 513.432C1216.08 513.432 1217.18 514.752 1217.26 516.288H1220.52C1220.33 513.024 1218 510.768 1213.78 510.768C1209.98 510.768 1207.22 512.856 1207.22 515.832C1207.22 518.52 1209.29 520.08 1211.93 520.584L1214.78 521.136C1216.63 521.472 1217.54 522.192 1217.54 523.464C1217.54 525.096 1216.06 525.768 1214.18 525.768C1211.95 525.768 1210.06 524.568 1209.89 522.24H1206.62C1206.89 525.984 1209.53 528.432 1214.04 528.432ZM1229.24 528L1231.25 520.008C1231.37 519.624 1231.49 519.144 1231.57 518.544C1231.64 519.144 1231.76 519.648 1231.83 520.008L1233.87 528H1237.49L1240.95 516.288H1238.14L1236.03 524.232C1235.91 524.688 1235.81 525.144 1235.69 525.744C1235.62 525.144 1235.5 524.688 1235.41 524.232L1233.46 516.288H1229.57L1227.65 524.232C1227.53 524.664 1227.44 525.144 1227.32 525.696C1227.25 525.144 1227.15 524.664 1227.05 524.232L1224.92 516.288H1221.89L1225.47 528H1229.24ZM1242.62 514.512H1245.69V511.44H1242.62V514.512ZM1242.69 516.288V528H1245.62V516.288H1242.69ZM1253.78 528.216C1254.53 528.216 1255.22 528.096 1255.51 528V525.792C1255.22 525.84 1254.91 525.864 1254.62 525.864C1253.37 525.864 1252.89 525.144 1252.89 523.92V518.616H1255.77V516.288H1252.89V512.064H1249.97V516.288H1247.3V518.616H1249.97V524.352C1249.97 526.968 1251.29 528.216 1253.78 528.216ZM1267.12 528V525.672H1260.14C1260.47 525.432 1260.79 525.144 1261.07 524.832L1266.86 518.952V516.288H1257.28V518.616H1263.81C1263.5 518.88 1263.21 519.12 1262.8 519.504L1257.02 525.384V528H1267.12ZM1274.5 528.432C1277.67 528.432 1279.73 526.584 1279.97 524.184H1277C1276.81 525.408 1275.77 526.128 1274.5 526.128C1272.73 526.128 1271.55 524.712 1271.53 522.864H1280.05V522.216C1280.05 518.4 1277.98 515.904 1274.41 515.904C1271 515.904 1268.53 518.424 1268.53 522.12C1268.53 526.176 1271 528.432 1274.5 528.432ZM1271.5 520.752C1271.67 519.216 1272.8 518.088 1274.38 518.088C1275.97 518.088 1277 519.168 1277.05 520.752H1271.5ZM1285.32 528V522.192C1285.32 519.624 1286.64 518.712 1288.44 518.712C1288.83 518.712 1289.09 518.76 1289.28 518.808V515.976C1289.09 515.928 1288.9 515.904 1288.66 515.904C1286.91 515.904 1285.85 517.08 1285.23 518.4C1285.3 517.968 1285.32 517.608 1285.32 517.176V516.288H1282.39V528H1285.32ZM1291.09 511.2V528H1294.02V511.2H1291.09ZM1300.43 528.432C1302.44 528.432 1303.64 527.544 1304.27 526.392C1304.2 526.776 1304.15 527.136 1304.15 527.52V528H1306.86V521.112C1306.86 517.824 1305.42 515.904 1301.84 515.904C1298.82 515.904 1296.83 517.632 1296.64 520.08H1299.66C1299.78 518.856 1300.64 518.088 1302.01 518.088C1303.26 518.088 1303.93 518.808 1303.93 519.624C1303.93 520.2 1303.6 520.536 1302.64 520.68L1300.96 520.896C1298.44 521.232 1296.4 522.144 1296.4 524.784C1296.4 527.088 1298.39 528.432 1300.43 528.432ZM1301.22 526.272C1300.19 526.272 1299.37 525.696 1299.37 524.664C1299.37 523.608 1300.31 523.128 1301.68 522.888L1302.64 522.696C1303.36 522.576 1303.76 522.432 1304.03 522.192V523.464C1304.03 525.12 1302.78 526.272 1301.22 526.272ZM1312.63 528V521.136C1312.63 519.504 1313.68 518.232 1315.12 518.232C1316.49 518.232 1317.33 519.312 1317.33 521.04V528H1320.26V520.608C1320.26 517.728 1318.72 515.904 1316.13 515.904C1314.28 515.904 1313.18 516.792 1312.53 517.968C1312.6 517.512 1312.63 517.152 1312.63 516.816V516.288H1309.7V528H1312.63ZM1327.83 528.432C1329.99 528.432 1331.05 527.256 1331.5 526.392C1331.41 526.8 1331.41 527.112 1331.41 527.52V528H1334.34V511.2H1331.41V516.816C1331.41 517.176 1331.41 517.536 1331.5 517.968C1330.83 516.84 1329.7 515.904 1327.88 515.904C1325.14 515.904 1322.48 517.992 1322.48 522.192C1322.48 526.32 1324.74 528.432 1327.83 528.432ZM1328.53 526.128C1326.78 526.128 1325.46 524.592 1325.46 522.168C1325.46 519.84 1326.78 518.232 1328.53 518.232C1330.28 518.232 1331.58 519.768 1331.58 522.168C1331.58 524.52 1330.28 526.128 1328.53 526.128Z" fill="#4A4A4A"/>
<path d="M739.992 852V844.944H748.032V842.28H739.992V837.864H748.488V835.2H736.848V852H739.992ZM753.338 852V846.192C753.338 843.624 754.658 842.712 756.458 842.712C756.842 842.712 757.106 842.76 757.298 842.808V839.976C757.106 839.928 756.914 839.904 756.674 839.904C754.922 839.904 753.866 841.08 753.242 842.4C753.314 841.968 753.338 841.608 753.338 841.176V840.288H750.41V852H753.338ZM762.326 852.432C764.342 852.432 765.542 851.544 766.166 850.392C766.094 850.776 766.046 851.136 766.046 851.52V852H768.758V845.112C768.758 841.824 767.318 839.904 763.742 839.904C760.718 839.904 758.726 841.632 758.534 844.08H761.558C761.678 842.856 762.542 842.088 763.91 842.088C765.158 842.088 765.83 842.808 765.83 843.624C765.83 844.2 765.494 844.536 764.534 844.68L762.854 844.896C760.334 845.232 758.294 846.144 758.294 848.784C758.294 851.088 760.286 852.432 762.326 852.432ZM763.118 850.272C762.086 850.272 761.27 849.696 761.27 848.664C761.27 847.608 762.206 847.128 763.574 846.888L764.534 846.696C765.254 846.576 765.662 846.432 765.926 846.192V847.464C765.926 849.12 764.678 850.272 763.118 850.272ZM774.525 852V845.136C774.525 843.504 775.581 842.232 777.021 842.232C778.389 842.232 779.229 843.312 779.229 845.04V852H782.157V844.608C782.157 841.728 780.621 839.904 778.029 839.904C776.181 839.904 775.077 840.792 774.429 841.968C774.501 841.512 774.525 841.152 774.525 840.816V840.288H771.597V852H774.525ZM790.283 852.432C793.763 852.432 795.683 850.512 796.091 847.536H793.115C792.971 848.928 792.131 850.128 790.355 850.128C788.555 850.128 787.331 848.496 787.331 846.168C787.331 843.624 788.723 842.232 790.427 842.232C792.083 842.232 792.899 843.384 792.995 844.704H795.971C795.683 841.968 793.835 839.904 790.427 839.904C787.019 839.904 784.355 842.232 784.355 846.144C784.355 850.032 786.563 852.432 790.283 852.432ZM803.526 852.432C806.694 852.432 808.758 850.584 808.998 848.184H806.022C805.83 849.408 804.798 850.128 803.526 850.128C801.75 850.128 800.574 848.712 800.55 846.864H809.07V846.216C809.07 842.4 807.006 839.904 803.43 839.904C800.022 839.904 797.55 842.424 797.55 846.12C797.55 850.176 800.022 852.432 803.526 852.432ZM800.526 844.752C800.694 843.216 801.822 842.088 803.406 842.088C804.99 842.088 806.022 843.168 806.07 844.752H800.526Z" fill="#4A4A4A"/>
<path d="M1628.85 963.2V980H1631.99V963.2H1628.85ZM1640.49 980.216C1641.24 980.216 1641.93 980.096 1642.22 980V977.792C1641.93 977.84 1641.62 977.864 1641.33 977.864C1640.08 977.864 1639.6 977.144 1639.6 975.92V970.616H1642.48V968.288H1639.6V964.064H1636.68V968.288H1634.01V970.616H1636.68V976.352C1636.68 978.968 1638 980.216 1640.49 980.216ZM1647.88 980.432C1649.9 980.432 1651.1 979.544 1651.72 978.392C1651.65 978.776 1651.6 979.136 1651.6 979.52V980H1654.31V973.112C1654.31 969.824 1652.87 967.904 1649.3 967.904C1646.27 967.904 1644.28 969.632 1644.09 972.08H1647.11C1647.23 970.856 1648.1 970.088 1649.46 970.088C1650.71 970.088 1651.38 970.808 1651.38 971.624C1651.38 972.2 1651.05 972.536 1650.09 972.68L1648.41 972.896C1645.89 973.232 1643.85 974.144 1643.85 976.784C1643.85 979.088 1645.84 980.432 1647.88 980.432ZM1648.67 978.272C1647.64 978.272 1646.82 977.696 1646.82 976.664C1646.82 975.608 1647.76 975.128 1649.13 974.888L1650.09 974.696C1650.81 974.576 1651.22 974.432 1651.48 974.192V975.464C1651.48 977.12 1650.23 978.272 1648.67 978.272ZM1657.15 963.2V980H1660.08V963.2H1657.15ZM1667.5 984.896L1673.67 968.288H1670.59L1668.22 975.848C1668.1 976.256 1667.95 976.688 1667.86 977.24C1667.74 976.688 1667.62 976.256 1667.47 975.848L1664.98 968.288H1661.69L1666.27 979.904L1664.38 984.896H1667.5Z" fill="#4A4A4A"/>
<path d="M2415.04 750.432C2419.36 750.432 2421.71 748.152 2421.71 745.008C2421.71 742.2 2419.65 740.712 2417.03 740.208L2414.2 739.656C2412.5 739.32 2411.37 738.864 2411.37 737.568C2411.37 736.2 2412.76 735.432 2414.58 735.432C2417.08 735.432 2418.18 736.752 2418.26 738.288H2421.52C2421.33 735.024 2419 732.768 2414.78 732.768C2410.98 732.768 2408.22 734.856 2408.22 737.832C2408.22 740.52 2410.29 742.08 2412.93 742.584L2415.78 743.136C2417.63 743.472 2418.54 744.192 2418.54 745.464C2418.54 747.096 2417.06 747.768 2415.18 747.768C2412.95 747.768 2411.06 746.568 2410.89 744.24H2407.62C2407.89 747.984 2410.53 750.432 2415.04 750.432ZM2424.21 733.2V750H2427.14V733.2H2424.21ZM2435.64 750.432C2439.24 750.432 2441.83 747.792 2441.83 744.168C2441.83 740.52 2439.24 737.904 2435.64 737.904C2432.04 737.904 2429.45 740.52 2429.45 744.168C2429.45 747.792 2432.04 750.432 2435.64 750.432ZM2435.64 748.104C2433.94 748.104 2432.42 746.688 2432.42 744.168C2432.42 741.624 2433.94 740.232 2435.64 740.232C2437.34 740.232 2438.86 741.624 2438.86 744.168C2438.86 746.688 2437.34 748.104 2435.64 748.104ZM2450.33 750L2454.63 738.288H2451.61L2449.06 746.016C2448.89 746.52 2448.77 746.928 2448.65 747.528C2448.51 746.928 2448.41 746.52 2448.22 746.016L2445.65 738.288H2442.51L2446.93 750H2450.33ZM2461.3 750.432C2464.47 750.432 2466.53 748.584 2466.77 746.184H2463.8C2463.6 747.408 2462.57 748.128 2461.3 748.128C2459.52 748.128 2458.35 746.712 2458.32 744.864H2466.84V744.216C2466.84 740.4 2464.78 737.904 2461.2 737.904C2457.8 737.904 2455.32 740.424 2455.32 744.12C2455.32 748.176 2457.8 750.432 2461.3 750.432ZM2458.3 742.752C2458.47 741.216 2459.6 740.088 2461.18 740.088C2462.76 740.088 2463.8 741.168 2463.84 742.752H2458.3ZM2472.12 750V743.136C2472.12 741.504 2473.18 740.232 2474.62 740.232C2475.98 740.232 2476.82 741.312 2476.82 743.04V750H2479.75V742.608C2479.75 739.728 2478.22 737.904 2475.62 737.904C2473.78 737.904 2472.67 738.792 2472.02 739.968C2472.1 739.512 2472.12 739.152 2472.12 738.816V738.288H2469.19V750H2472.12ZM2482.55 736.512H2485.62V733.44H2482.55V736.512ZM2482.62 738.288V750H2485.55V738.288H2482.62ZM2491.96 750.432C2493.98 750.432 2495.18 749.544 2495.8 748.392C2495.73 748.776 2495.68 749.136 2495.68 749.52V750H2498.39V743.112C2498.39 739.824 2496.95 737.904 2493.38 737.904C2490.35 737.904 2488.36 739.632 2488.17 742.08H2491.19C2491.31 740.856 2492.18 740.088 2493.54 740.088C2494.79 740.088 2495.46 740.808 2495.46 741.624C2495.46 742.2 2495.13 742.536 2494.17 742.68L2492.49 742.896C2489.97 743.232 2487.93 744.144 2487.93 746.784C2487.93 749.088 2489.92 750.432 2491.96 750.432ZM2492.75 748.272C2491.72 748.272 2490.9 747.696 2490.9 746.664C2490.9 745.608 2491.84 745.128 2493.21 744.888L2494.17 744.696C2494.89 744.576 2495.3 744.432 2495.56 744.192V745.464C2495.56 747.12 2494.31 748.272 2492.75 748.272Z" fill="#4A4A4A"/>
<path d="M1545.44 450V447.336H1536.99V433.2H1533.85V450H1545.44ZM1547.03 436.512H1550.11V433.44H1547.03V436.512ZM1547.11 438.288V450H1550.03V438.288H1547.11ZM1558.32 450.432C1561.48 450.432 1563.55 448.584 1563.79 446.184H1560.81C1560.62 447.408 1559.59 448.128 1558.32 448.128C1556.54 448.128 1555.36 446.712 1555.34 444.864H1563.86V444.216C1563.86 440.4 1561.8 437.904 1558.22 437.904C1554.81 437.904 1552.34 440.424 1552.34 444.12C1552.34 448.176 1554.81 450.432 1558.32 450.432ZM1555.32 442.752C1555.48 441.216 1556.61 440.088 1558.2 440.088C1559.78 440.088 1560.81 441.168 1560.86 442.752H1555.32ZM1571.46 450.432C1574.94 450.432 1576.86 448.512 1577.27 445.536H1574.29C1574.15 446.928 1573.31 448.128 1571.53 448.128C1569.73 448.128 1568.51 446.496 1568.51 444.168C1568.51 441.624 1569.9 440.232 1571.61 440.232C1573.26 440.232 1574.08 441.384 1574.17 442.704H1577.15C1576.86 439.968 1575.01 437.904 1571.61 437.904C1568.2 437.904 1565.53 440.232 1565.53 444.144C1565.53 448.032 1567.74 450.432 1571.46 450.432ZM1582.33 450V443.136C1582.33 441.504 1583.39 440.232 1584.83 440.232C1586.19 440.232 1587.03 441.312 1587.03 443.04V450H1589.96V442.608C1589.96 439.728 1588.43 437.904 1585.83 437.904C1583.99 437.904 1582.88 438.792 1582.23 439.968C1582.31 439.512 1582.33 439.152 1582.33 438.816V433.2H1579.4V450H1582.33ZM1597.9 450.216C1598.64 450.216 1599.34 450.096 1599.63 450V447.792C1599.34 447.84 1599.03 447.864 1598.74 447.864C1597.49 447.864 1597.01 447.144 1597.01 445.92V440.616H1599.89V438.288H1597.01V434.064H1594.08V438.288H1591.42V440.616H1594.08V446.352C1594.08 448.968 1595.4 450.216 1597.9 450.216ZM1607.02 450.432C1610.19 450.432 1612.25 448.584 1612.49 446.184H1609.51C1609.32 447.408 1608.29 448.128 1607.02 448.128C1605.24 448.128 1604.07 446.712 1604.04 444.864H1612.56V444.216C1612.56 440.4 1610.5 437.904 1606.92 437.904C1603.51 437.904 1601.04 440.424 1601.04 444.12C1601.04 448.176 1603.51 450.432 1607.02 450.432ZM1604.02 442.752C1604.19 441.216 1605.31 440.088 1606.9 440.088C1608.48 440.088 1609.51 441.168 1609.56 442.752H1604.02ZM1617.84 450V443.136C1617.84 441.504 1618.89 440.232 1620.33 440.232C1621.7 440.232 1622.54 441.312 1622.54 443.04V450H1625.47V442.608C1625.47 439.728 1623.93 437.904 1621.34 437.904C1619.49 437.904 1618.39 438.792 1617.74 439.968C1617.81 439.512 1617.84 439.152 1617.84 438.816V438.288H1614.91V450H1617.84ZM1633.02 450.432C1636.04 450.432 1637.99 448.8 1637.99 446.568C1637.99 444.504 1636.48 443.448 1634.17 442.992L1632.76 442.704C1631.27 442.416 1630.81 442.056 1630.81 441.36C1630.81 440.52 1631.65 440.088 1632.73 440.088C1634.05 440.088 1634.89 440.832 1634.99 441.984H1637.92C1637.84 439.536 1635.88 437.904 1632.73 437.904C1629.85 437.904 1627.93 439.44 1627.93 441.48C1627.93 443.424 1629.32 444.576 1631.77 445.056L1633.19 445.344C1634.44 445.584 1635.11 445.944 1635.11 446.736C1635.11 447.624 1634.27 448.248 1632.95 448.248C1631.39 448.248 1630.52 447.36 1630.45 445.968H1627.48C1627.67 448.704 1629.71 450.432 1633.02 450.432ZM1645.31 450.216C1646.06 450.216 1646.75 450.096 1647.04 450V447.792C1646.75 447.84 1646.44 447.864 1646.15 447.864C1644.9 447.864 1644.42 447.144 1644.42 445.92V440.616H1647.3V438.288H1644.42V434.064H1641.5V438.288H1638.83V440.616H1641.5V446.352C1641.5 448.968 1642.82 450.216 1645.31 450.216ZM1654.43 450.432C1657.6 450.432 1659.66 448.584 1659.9 446.184H1656.93C1656.74 447.408 1655.7 448.128 1654.43 448.128C1652.66 448.128 1651.48 446.712 1651.46 444.864H1659.98V444.216C1659.98 440.4 1657.91 437.904 1654.34 437.904C1650.93 437.904 1648.46 440.424 1648.46 444.12C1648.46 448.176 1650.93 450.432 1654.43 450.432ZM1651.43 442.752C1651.6 441.216 1652.73 440.088 1654.31 440.088C1655.9 440.088 1656.93 441.168 1656.98 442.752H1651.43ZM1662.25 436.512H1665.32V433.44H1662.25V436.512ZM1662.32 438.288V450H1665.25V438.288H1662.32ZM1671.16 450V443.136C1671.16 441.504 1672.21 440.232 1673.65 440.232C1675.02 440.232 1675.86 441.312 1675.86 443.04V450H1678.79V442.608C1678.79 439.728 1677.25 437.904 1674.66 437.904C1672.81 437.904 1671.71 438.792 1671.06 439.968C1671.13 439.512 1671.16 439.152 1671.16 438.816V438.288H1668.23V450H1671.16Z" fill="#4A4A4A"/>
<path d="M1736.83 172.432C1739.45 172.432 1741.15 171.304 1741.94 169.792C1741.82 170.344 1741.78 170.896 1741.78 171.472V172H1744.66V163.048H1737.22V165.712H1741.78V165.832C1741.78 168.232 1739.83 169.768 1737.34 169.768C1734.26 169.768 1732.15 167.416 1732.15 163.6C1732.15 159.784 1734.31 157.432 1737.41 157.432C1739.64 157.432 1741.13 158.728 1741.34 160.408H1744.58C1744.27 157.144 1741.56 154.768 1737.36 154.768C1732.3 154.768 1728.91 158.416 1728.91 163.6C1728.91 168.976 1732.08 172.432 1736.83 172.432ZM1752.7 172.432C1755.87 172.432 1757.93 170.584 1758.17 168.184H1755.19C1755 169.408 1753.97 170.128 1752.7 170.128C1750.92 170.128 1749.75 168.712 1749.72 166.864H1758.24V166.216C1758.24 162.4 1756.18 159.904 1752.6 159.904C1749.19 159.904 1746.72 162.424 1746.72 166.12C1746.72 170.176 1749.19 172.432 1752.7 172.432ZM1749.7 164.752C1749.87 163.216 1750.99 162.088 1752.58 162.088C1754.16 162.088 1755.19 163.168 1755.24 164.752H1749.7ZM1763.52 172V166.192C1763.52 163.624 1764.84 162.712 1766.64 162.712C1767.02 162.712 1767.29 162.76 1767.48 162.808V159.976C1767.29 159.928 1767.09 159.904 1766.85 159.904C1765.1 159.904 1764.05 161.08 1763.42 162.4C1763.49 161.968 1763.52 161.608 1763.52 161.176V160.288H1760.59V172H1763.52ZM1772.21 172V165.184C1772.21 163.36 1773.15 162.232 1774.42 162.232C1775.74 162.232 1776.36 163.36 1776.36 165.064V172H1779.29V165.184C1779.29 163.408 1780.25 162.232 1781.52 162.232C1782.8 162.232 1783.47 163.36 1783.47 165.064V172H1786.4V164.632C1786.4 161.776 1784.74 159.904 1782.36 159.904C1780.66 159.904 1779.24 160.96 1778.57 162.088C1778.14 161.032 1776.96 159.904 1775.5 159.904C1773.77 159.904 1772.69 160.936 1772.12 161.968C1772.19 161.584 1772.21 161.176 1772.21 160.816V160.288H1769.28V172H1772.21ZM1792.69 172.432C1794.7 172.432 1795.9 171.544 1796.53 170.392C1796.45 170.776 1796.41 171.136 1796.41 171.52V172H1799.12V165.112C1799.12 161.824 1797.68 159.904 1794.1 159.904C1791.08 159.904 1789.09 161.632 1788.89 164.08H1791.92C1792.04 162.856 1792.9 162.088 1794.27 162.088C1795.52 162.088 1796.19 162.808 1796.19 163.624C1796.19 164.2 1795.85 164.536 1794.89 164.68L1793.21 164.896C1790.69 165.232 1788.65 166.144 1788.65 168.784C1788.65 171.088 1790.65 172.432 1792.69 172.432ZM1793.48 170.272C1792.45 170.272 1791.63 169.696 1791.63 168.664C1791.63 167.608 1792.57 167.128 1793.93 166.888L1794.89 166.696C1795.61 166.576 1796.02 166.432 1796.29 166.192V167.464C1796.29 169.12 1795.04 170.272 1793.48 170.272ZM1804.88 172V165.136C1804.88 163.504 1805.94 162.232 1807.38 162.232C1808.75 162.232 1809.59 163.312 1809.59 165.04V172H1812.52V164.608C1812.52 161.728 1810.98 159.904 1808.39 159.904C1806.54 159.904 1805.44 160.792 1804.79 161.968C1804.86 161.512 1804.88 161.152 1804.88 160.816V160.288H1801.96V172H1804.88ZM1819.62 176.896L1825.78 160.288H1822.71L1820.34 167.848C1820.22 168.256 1820.07 168.688 1819.98 169.24C1819.86 168.688 1819.74 168.256 1819.59 167.848L1817.1 160.288H1813.81L1818.39 171.904L1816.5 176.896H1819.62Z" fill="#4A4A4A"/>
</svg>
